{
  "success": true,
  "version": "1.0",
  "timestamp": "2024-01-15T10:00:00Z",
  "cache_ttl": 3600,
  "total_posts": 573,
  "data": {
    "posts_metadata": [
      {
        "id": 1,
        "post_uuid": "550e8400-e29b-41d4-a716-446655440001",
        "title": "AI Revolution 2024: Complete Guide to Artificial Intelligence",
        "slug": "ai-revolution-2024-complete-guide",
        "category": "technology",
        "author_id": "auth_001",
        "author_name": "Dr. Sarah Chen",
        "status": "published",
        "featured": true,
        "trending": true,
        "views": 15420,
        "likes": 3421,
        "comments": 156,
        "shares": 876,
        "saves": 543,
        "published_at": "2024-01-15T09:00:00Z",
        "updated_at": "2024-01-15T09:00:00Z",
        "word_count": 2450,
        "read_time_minutes": 8,
        "has_affiliate_links": true,
        "has_video": false,
        "has_audio": false,
        "has_infographic": true,
        "seo_score": 94,
        "url": "/posts/2024/01/15/ai-revolution-2024-complete-guide/",
        "amp_url": "/posts/2024/01/15/ai-revolution-2024-complete-guide/amp.html",
        "api_url": "/api/v1/posts/2024/01/15/ai-revolution-2024-complete-guide.json",
        "featured_image": "https://trendingwealth.com/assets/images/optimized/webp/ai-revolution.webp"
      },
      {
        "id": 2,
        "post_uuid": "550e8400-e29b-41d4-a716-446655440002",
        "title": "10 Passive Income Ideas for 2024: Build Wealth While You Sleep",
        "slug": "passive-income-ideas-2024",
        "category": "wealth",
        "author_id": "auth_002",
        "author_name": "Michael Rodriguez",
        "status": "published",
        "featured": true,
        "trending": true,
        "views": 12890,
        "likes": 2891,
        "comments": 234,
        "shares": 654,
        "saves": 432,
        "published_at": "2024-01-15T11:00:00Z",
        "updated_at": "2024-01-15T11:00:00Z",
        "word_count": 3200,
        "read_time_minutes": 12,
        "has_affiliate_links": true,
        "has_video": false,
        "has_audio": false,
        "has_infographic": true,
        "seo_score": 96,
        "url": "/posts/2024/01/15/passive-income-ideas-2024/",
        "amp_url": "/posts/2024/01/15/passive-income-ideas-2024/amp.html",
        "api_url": "/api/v1/posts/2024/01/15/passive-income-ideas-2024.json",
        "featured_image": "https://trendingwealth.com/assets/images/optimized/webp/passive-income.webp"
      },
      {
        "id": 3,
        "post_uuid": "550e8400-e29b-41d4-a716-446655440003",
        "title": "Intermittent Fasting Complete Guide: Benefits, Methods & Results",
        "slug": "intermittent-fasting-complete-guide",
        "category": "health",
        "author_id": "auth_003",
        "author_name": "Dr. Emily Watson",
        "status": "published",
        "featured": false,
        "trending": true,
        "views": 11234,
        "likes": 2156,
        "comments": 189,
        "shares": 543,
        "saves": 321,
        "published_at": "2024-01-14T14:30:00Z",
        "updated_at": "2024-01-14T14:30:00Z",
        "word_count": 2800,
        "read_time_minutes": 10,
        "has_affiliate_links": false,
        "has_video": true,
        "has_audio": false,
        "has_infographic": true,
        "seo_score": 92,
        "url": "/posts/2024/01/14/intermittent-fasting-complete-guide/",
        "amp_url": "/posts/2024/01/14/intermittent-fasting-complete-guide/amp.html",
        "api_url": "/api/v1/posts/2024/01/14/intermittent-fasting-complete-guide.json",
        "featured_image": "https://trendingwealth.com/assets/images/optimized/webp/intermittent-fasting.webp"
      },
      {
        "id": 4,
        "post_uuid": "550e8400-e29b-41d4-a716-446655440004",
        "title": "Best Smartphones 2024: Complete Buyer's Guide with Deals",
        "slug": "best-smartphones-2024-buyers-guide",
        "category": "technology",
        "author_id": "auth_004",
        "author_name": "Alex Thompson",
        "status": "published",
        "featured": false,
        "trending": true,
        "views": 9876,
        "likes": 1876,
        "comments": 345,
        "shares": 432,
        "saves": 287,
        "published_at": "2024-01-14T10:00:00Z",
        "updated_at": "2024-01-14T10:00:00Z",
        "word_count": 4100,
        "read_time_minutes": 15,
        "has_affiliate_links": true,
        "has_video": true,
        "has_audio": false,
        "has_infographic": true,
        "seo_score": 95,
        "url": "/posts/2024/01/14/best-smartphones-2024-buyers-guide/",
        "amp_url": "/posts/2024/01/14/best-smartphones-2024-buyers-guide/amp.html",
        "api_url": "/api/v1/posts/2024/01/14/best-smartphones-2024-buyers-guide.json",
        "featured_image": "https://trendingwealth.com/assets/images/optimized/webp/smartphones-2024.webp"
      },
      {
        "id": 5,
        "post_uuid": "550e8400-e29b-41d4-a716-446655440005",
        "title": "Morning Routine of Billionaires: Start Your Day Like the Top 1%",
        "slug": "morning-routine-billionaires",
        "category": "growth",
        "author_id": "auth_005",
        "author_name": "Jennifer Lopez",
        "status": "published",
        "featured": false,
        "trending": false,
        "views": 8765,
        "likes": 1543,
        "comments": 98,
        "shares": 287,
        "saves": 198,
        "published_at": "2024-01-13T08:00:00Z",
        "updated_at": "2024-01-13T08:00:00Z",
        "word_count": 2100,
        "read_time_minutes": 7,
        "has_affiliate_links": true,
        "has_video": false,
        "has_audio": false,
        "has_infographic": false,
        "seo_score": 89,
        "url": "/posts/2024/01/13/morning-routine-billionaires/",
        "amp_url": "/posts/2024/01/13/morning-routine-billionaires/amp.html",
        "api_url": "/api/v1/posts/2024/01/13/morning-routine-billionaires.json",
        "featured_image": "https://trendingwealth.com/assets/images/optimized/webp/morning-routine.webp"
      },
      {
        "id": 6,
        "post_uuid": "550e8400-e29b-41d4-a716-446655440006",
        "title": "Cryptocurrency Investing Guide 2024: Bitcoin, Ethereum & Altcoins",
        "slug": "cryptocurrency-investing-guide-2024",
        "category": "wealth",
        "author_id": "auth_006",
        "author_name": "David Kim",
        "status": "published",
        "featured": false,
        "trending": false,
        "views": 7654,
        "likes": 1234,
        "comments": 267,
        "shares": 198,
        "saves": 154,
        "published_at": "2024-01-12T16:00:00Z",
        "updated_at": "2024-01-12T16:00:00Z",
        "word_count": 3500,
        "read_time_minutes": 14,
        "has_affiliate_links": true,
        "has_video": false,
        "has_audio": false,
        "has_infographic": true,
        "seo_score": 93,
        "url": "/posts/2024/01/12/cryptocurrency-investing-guide-2024/",
        "amp_url": "/posts/2024/01/12/cryptocurrency-investing-guide-2024/amp.html",
        "api_url": "/api/v1/posts/2024/01/12/cryptocurrency-investing-guide-2024.json",
        "featured_image": "https://trendingwealth.com/assets/images/optimized/webp/crypto-guide.webp"
      },
      {
        "id": 7,
        "post_uuid": "550e8400-e29b-41d4-a716-446655440007",
        "title": "Best Mental Health Apps of 2024: Expert Review",
        "slug": "mental-health-apps-review",
        "category": "health",
        "author_id": "auth_007",
        "author_name": "Dr. Lisa Brown",
        "status": "published",
        "featured": false,
        "trending": false,
        "views": 6987,
        "likes": 987,
        "comments": 76,
        "shares": 165,
        "saves": 123,
        "published_at": "2024-01-11T13:00:00Z",
        "updated_at": "2024-01-11T13:00:00Z",
        "word_count": 2300,
        "read_time_minutes": 9,
        "has_affiliate_links": true,
        "has_video": false,
        "has_audio": false,
        "has_infographic": false,
        "seo_score": 88,
        "url": "/posts/2024/01/11/mental-health-apps-review/",
        "amp_url": "/posts/2024/01/11/mental-health-apps-review/amp.html",
        "api_url": "/api/v1/posts/2024/01/11/mental-health-apps-review.json",
        "featured_image": "https://trendingwealth.com/assets/images/optimized/webp/mental-health-apps.webp"
      },
      {
        "id": 8,
        "post_uuid": "550e8400-e29b-41d4-a716-446655440008",
        "title": "Best Netflix Series to Watch in 2024: Top 20 Picks",
        "slug": "netflix-best-series-2024",
        "category": "entertainment",
        "author_id": "auth_008",
        "author_name": "Rachel Green",
        "status": "published",
        "featured": false,
        "trending": false,
        "views": 6543,
        "likes": 876,
        "comments": 123,
        "shares": 143,
        "saves": 98,
        "published_at": "2024-01-10T19:00:00Z",
        "updated_at": "2024-01-10T19:00:00Z",
        "word_count": 1800,
        "read_time_minutes": 6,
        "has_affiliate_links": true,
        "has_video": false,
        "has_audio": false,
        "has_infographic": false,
        "seo_score": 86,
        "url": "/posts/2024/01/10/netflix-best-series-2024/",
        "amp_url": "/posts/2024/01/10/netflix-best-series-2024/amp.html",
        "api_url": "/api/v1/posts/2024/01/10/netflix-best-series-2024.json",
        "featured_image": "https://trendingwealth.com/assets/images/optimized/webp/netflix-series.webp"
      },
      {
        "id": 9,
        "post_uuid": "550e8400-e29b-41d4-a716-446655440009",
        "title": "Top Travel Destinations for 2024: Where to Go This Year",
        "slug": "top-travel-destinations-2024",
        "category": "world",
        "author_id": "auth_009",
        "author_name": "Marco Polo",
        "status": "published",
        "featured": false,
        "trending": false,
        "views": 6123,
        "likes": 765,
        "comments": 89,
        "shares": 132,
        "saves": 87,
        "published_at": "2024-01-09T12:00:00Z",
        "updated_at": "2024-01-09T12:00:00Z",
        "word_count": 2900,
        "read_time_minutes": 11,
        "has_affiliate_links": true,
        "has_video": true,
        "has_audio": false,
        "has_infographic": true,
        "seo_score": 91,
        "url": "/posts/2024/01/09/top-travel-destinations-2024/",
        "amp_url": "/posts/2024/01/09/top-travel-destinations-2024/amp.html",
        "api_url": "/api/v1/posts/2024/01/09/top-travel-destinations-2024.json",
        "featured_image": "https://trendingwealth.com/assets/images/optimized/webp/travel-destinations.webp"
      },
      {
        "id": 10,
        "post_uuid": "550e8400-e29b-41d4-a716-446655440010",
        "title": "Minimalist Living Guide: Declutter Your Life in 30 Days",
        "slug": "minimalist-living-guide",
        "category": "lifestyle",
        "author_id": "auth_010",
        "author_name": "Marie Kondo",
        "status": "published",
        "featured": false,
        "trending": false,
        "views": 5876,
        "likes": 654,
        "comments": 67,
        "shares": 98,
        "saves": 76,
        "published_at": "2024-01-08T10:00:00Z",
        "updated_at": "2024-01-08T10:00:00Z",
        "word_count": 2400,
        "read_time_minutes": 8,
        "has_affiliate_links": true,
        "has_video": false,
        "has_audio": false,
        "has_infographic": true,
        "seo_score": 90,
        "url": "/posts/2024/01/08/minimalist-living-guide/",
        "amp_url": "/posts/2024/01/08/minimalist-living-guide/amp.html",
        "api_url": "/api/v1/posts/2024/01/08/minimalist-living-guide.json",
        "featured_image": "https://trendingwealth.com/assets/images/optimized/webp/minimalist-living.webp"
      }
    ]
  },
  "aggregates": {
    "total_views": 89234,
    "total_likes": 17643,
    "total_comments": 1644,
    "total_shares": 3548,
    "total_saves": 2329,
    "average_read_time": 10,
    "average_seo_score": 91.4,
    "posts_with_affiliate": 8,
    "posts_with_video": 3,
    "posts_with_infographic": 7,
    "top_performing_category": "technology",
    "top_performing_author": "Dr. Sarah Chen"
  },
  "filters": {
    "by_category": "/api/v1/posts/by-category/{category}.json",
    "by_author": "/api/v1/posts/by-author/{author_id}.json",
    "by_date": "/api/v1/posts/by-date/{year}-{month}.json",
    "by_status": "/api/v1/posts/by-status/{status}.json",
    "search": "/api/v1/search.json?q={query}"
  },
  "pagination": {
    "current_page": 1,
    "per_page": 10,
    "total_pages": 58,
    "total_items": 573,
    "next_page": "/api/v1/posts/index.json?page=2",
    "previous_page": null,
    "first_page": "/api/v1/posts/index.json?page=1",
    "last_page": "/api/v1/posts/index.json?page=58"
  },
  "meta": {
    "updated_at": "2024-01-15T10:00:00Z",
    "next_update": "2024-01-15T11:00:00Z",
    "source": "cloudflare-cache",
    "cache_hit": true,
    "version": "v1",
    "api_status": "stable",
    "generator": "trending-wealth-static-gen",
    "generator_version": "1.0.0"
  }
}